5;1;10;Salut GagiQ;2020-12-02T13:16:29.579815600;-1;-7745472442710579141;
10;1;5;Salut GagiK;2020-12-02T13:17:48.778293500;-7745472442710579141;-3947866121485264951;
5;1;10;Ce faci?;2020-12-02T15:21:33.048012900;-3947866121485264951;608313722676392587;
5;2;15;14;Ce mai fac cateii?;2020-12-02T15:22:48.080639;-1;7550551639601663817;
15;2;5;14;Binee, acum au 4 luni amandoi, nu Pukus?;2020-12-02T15:27:05.298818;7550551639601663817;-7527149049486369769;
14;2;15;5;Da da, si sunt tare dragalasi!;2020-12-02T15:28:08.043749;-7527149049486369769;8780608799631215495;
5;2;14;15;Salut test;2020-12-02T17:14:35.707863500;-1;-2844652526821391227;
15;2;5;14;Raspuns test;2020-12-02T17:18:07.352594300;-2844652526821391227;1239520428407074327;
10;1;5;Bine, tuu? uwu;2020-12-03T16:39:33.211159800;-1;-1232370477966601046;
10;1;5;Neatza beib;2021-01-01T11:04:55.041252800;-1;-6190197604671364461;
10;1;5;vine sesiunea :o;2021-01-01T11:05:32.878410900;-1;-6732963361450076808;
10;1;5;testam mesajul;2021-01-01T11:11:24.411587;-1;7026941354118779077;
10;1;5;uau;2021-01-01T11:11:26.585937100;-1;-1596138277478004734;
10;1;5;e perfect lol;2021-01-01T11:11:31.362884700;-1;-4309186000687277728;
5;1;74;Buna dimineata, domnul Johan!;2021-01-02T11:12:00.800225200;-1;8455243539118034358;
74;1;5;Ce faceti?;2021-01-02T11:12:05.771647700;-1;-8889883839065606060;
10;1;5;da, vine;2021-01-02T07:57:24.849309100;-1;4282785991707415812;
10;1;5;e ciudat ca eu scriu;2021-01-03T07:57:44.701727200;-1;4904477133162440377;
10;1;5;dar trebuie sa testam;2021-01-03T07:57:53.936457800;-1;-2452619862616342738;
5;1;12;salut ma;2021-01-03T14:16:26.448869400;-1;-2712083724167432170;
5;1;10;Neata, pune 2x pe CFR - Dinamo;2021-01-06T10:11:31.770440100;-1;-7937818775337559837;
21;1;10;Hy, how are you?;2021-01-06T12:46:38.195735700;-1;-700107152715306193;
21;1;12;Noroc ba Vasile!;2021-01-06T12:47:56.912995100;-1;2406941431975195855;
